UPDATE `laravel_transactions` SET `status` = REPLACE(`status`, ' ', '');
UPDATE `laravel_transactions` SET `status` = TRIM(`status`);


UPDATE `laravel_transactions` SET `status` = 'pending' where `status`= 'Pending';
UPDATE `laravel_transactions` SET `status` = 'pending' where `status`= ' Pending';
UPDATE `laravel_transactions` SET `status` = 'paid' where `status`= 'PAID';



-- phpMyAdmin SQL Dump
-- version 4.8.3
-- https://www.phpmyadmin.net/
--
-- Host: 127.0.0.1
-- Generation Time: Apr 11, 2019 at 10:18 PM
-- Server version: 10.1.37-MariaDB
-- PHP Version: 7.2.12

SET SQL_MODE = "NO_AUTO_VALUE_ON_ZERO";
SET AUTOCOMMIT = 0;
START TRANSACTION;
SET time_zone = "+00:00";

--
-- Database: `laravel_money`
--

-- --------------------------------------------------------

--
-- Table structure for table `laravel_currency`
--

CREATE TABLE `laravel_currency` (
  `id` int(10) UNSIGNED NOT NULL,
  `code` varchar(191) COLLATE utf8mb4_unicode_ci NOT NULL,
  `origin` varchar(191) COLLATE utf8mb4_unicode_ci NOT NULL,
  `origin_symbol` varchar(191) COLLATE utf8mb4_unicode_ci NOT NULL,
  `destination` varchar(191) COLLATE utf8mb4_unicode_ci NOT NULL,
  `destination_symbol` varchar(191) COLLATE utf8mb4_unicode_ci NOT NULL,
  `user_id` int(11) NOT NULL,
  `income_category` varchar(191) COLLATE utf8mb4_unicode_ci NOT NULL DEFAULT 'commission',
  `status` int(11) NOT NULL,
  `created_at` timestamp NULL DEFAULT NULL,
  `updated_at` timestamp NULL DEFAULT NULL
) ENGINE=InnoDB DEFAULT CHARSET=utf8mb4 COLLATE=utf8mb4_unicode_ci;

--
-- Dumping data for table `laravel_currency`
--

INSERT INTO `laravel_currency` (`id`, `code`, `origin`, `origin_symbol`, `destination`, `destination_symbol`, `user_id`, `income_category`, `status`, `created_at`, `updated_at`) VALUES
(1, 'UK-NG', 'United Kingdom', 'UK', 'Nigeria', 'NG', 1, 'commission', 1, '2018-12-03 16:14:16', '2018-12-03 16:14:16'),
(2, 'UK-AL', 'United Kingdom', 'UK', 'Albania', 'AL', 1, 'commission', 0, '2018-12-03 16:14:16', '2019-04-09 15:20:02'),
(3, 'UK-DZ', 'United Kingdom', 'UK', 'Algeria', 'DZ', 1, 'commission', 0, '2018-12-03 16:14:16', '2019-04-09 15:20:18'),
(4, 'UK-AS', 'United Kingdom', 'UK', 'American Samoa', 'AS', 1, 'commission', 0, '2018-12-03 16:14:16', '2018-12-03 16:14:16'),
(5, 'UK-AD', 'United Kingdom', 'UK', 'Andorra', 'AD', 1, 'commission', 0, '2018-12-03 16:14:16', '2018-12-03 16:14:16'),
(6, 'UK-AO', 'United Kingdom', 'UK', 'Angola', 'AO', 1, 'commission', 0, '2018-12-03 16:14:16', '2019-04-09 15:20:47'),
(7, 'UK-AI', 'United Kingdom', 'UK', 'Anguilla', 'AI', 1, 'commission', 0, '2018-12-03 16:14:16', '2019-04-09 15:21:17'),
(8, 'UK-AQ', 'United Kingdom', 'UK', 'Antarctica', 'AQ', 1, 'commission', 0, '2018-12-03 16:14:16', '2018-12-03 16:14:16'),
(9, 'UK-AG', 'United Kingdom', 'UK', 'Antigua and Barbuda', 'AG', 1, 'commission', 0, '2018-12-03 16:14:16', '2018-12-03 16:14:16'),
(10, 'UK-AR', 'United Kingdom', 'UK', 'Argentina', 'AR', 1, 'commission', 0, '2018-12-03 16:14:16', '2019-03-11 11:51:03'),
(11, 'UK-AM', 'United Kingdom', 'UK', 'Armenia', 'AM', 1, 'commission', 0, '2018-12-03 16:14:16', '2018-12-03 16:14:16'),
(12, 'UK-AW', 'United Kingdom', 'UK', 'Aruba', 'AW', 1, 'commission', 0, '2018-12-03 16:14:16', '2018-12-03 16:14:16'),
(13, 'UK-AU', 'United Kingdom', 'UK', 'Australia', 'AU', 1, 'commission', 0, '2018-12-03 16:14:16', '2019-04-09 15:21:03'),
(14, 'UK-AT', 'United Kingdom', 'UK', 'Austria', 'AT', 1, 'commission', 0, '2018-12-03 16:14:16', '2018-12-03 16:14:16'),
(15, 'UK-AZ', 'United Kingdom', 'UK', 'Azerbaijan', 'AZ', 1, 'commission', 0, '2018-12-03 16:14:16', '2018-12-03 16:14:16'),
(16, 'UK-BS', 'United Kingdom', 'UK', 'Bahamas', 'BS', 1, 'commission', 0, '2018-12-03 16:14:16', '2018-12-03 16:14:16'),
(17, 'UK-BH', 'United Kingdom', 'UK', 'Bahrain', 'BH', 1, 'commission', 0, '2018-12-03 16:14:16', '2018-12-03 16:14:16'),
(18, 'UK-BD', 'United Kingdom', 'UK', 'Bangladesh', 'BD', 1, 'commission', 0, '2018-12-03 16:14:16', '2018-12-03 16:14:16'),
(19, 'UK-BB', 'United Kingdom', 'UK', 'Barbados', 'BB', 1, 'commission', 0, '2018-12-03 16:14:16', '2018-12-03 16:14:16'),
(20, 'UK-BY', 'United Kingdom', 'UK', 'Belarus', 'BY', 1, 'commission', 0, '2018-12-03 16:14:16', '2018-12-03 16:14:16'),
(21, 'UK-BE', 'United Kingdom', 'UK', 'Belgium', 'BE', 1, 'commission', 0, '2018-12-03 16:14:16', '2018-12-03 16:14:16'),
(22, 'UK-BZ', 'United Kingdom', 'UK', 'Belize', 'BZ', 1, 'commission', 0, '2018-12-03 16:14:16', '2018-12-03 16:14:16'),
(23, 'UK-BJ', 'United Kingdom', 'UK', 'Benin', 'BJ', 1, 'commission', 0, '2018-12-03 16:14:16', '2018-12-03 16:14:16'),
(24, 'UK-BM', 'United Kingdom', 'UK', 'Bermuda', 'BM', 1, 'commission', 0, '2018-12-03 16:14:16', '2018-12-03 16:14:16'),
(25, 'UK-BT', 'United Kingdom', 'UK', 'Bhutan', 'BT', 1, 'commission', 0, '2018-12-03 16:14:16', '2018-12-03 16:14:16'),
(26, 'UK-BO', 'United Kingdom', 'UK', 'Bolivia', 'BO', 1, 'commission', 0, '2018-12-03 16:14:16', '2018-12-03 16:14:16'),
(27, 'UK-BA', 'United Kingdom', 'UK', 'Bosnia and Herzegovina', 'BA', 1, 'commission', 0, '2018-12-03 16:14:16', '2018-12-03 16:14:16'),
(28, 'UK-BW', 'United Kingdom', 'UK', 'Botswana', 'BW', 1, 'commission', 0, '2018-12-03 16:14:16', '2018-12-03 16:14:16'),
(29, 'UK-BV', 'United Kingdom', 'UK', 'Bouvet Island', 'BV', 1, 'commission', 0, '2018-12-03 16:14:16', '2018-12-03 16:14:16'),
(30, 'UK-BR', 'United Kingdom', 'UK', 'Brazil', 'BR', 1, 'commission', 0, '2018-12-03 16:14:16', '2018-12-03 16:14:16'),
(31, 'UK-BQ', 'United Kingdom', 'UK', 'British Antarctic Territory', 'BQ', 1, 'commission', 0, '2018-12-03 16:14:16', '2018-12-03 16:14:16'),
(32, 'UK-IO', 'United Kingdom', 'UK', 'British Indian Ocean Territory', 'IO', 1, 'commission', 0, '2018-12-03 16:14:16', '2018-12-03 16:14:16'),
(33, 'UK-VG', 'United Kingdom', 'UK', 'British Virgin Islands', 'VG', 1, 'commission', 0, '2018-12-03 16:14:16', '2018-12-03 16:14:16'),
(34, 'UK-BN', 'United Kingdom', 'UK', 'Brunei', 'BN', 1, 'commission', 0, '2018-12-03 16:14:16', '2018-12-03 16:14:16'),
(35, 'UK-BG', 'United Kingdom', 'UK', 'Bulgaria', 'BG', 1, 'commission', 0, '2018-12-03 16:14:16', '2018-12-03 16:14:16'),
(36, 'UK-BF', 'United Kingdom', 'UK', 'Burkina Faso', 'BF', 1, 'commission', 0, '2018-12-03 16:14:16', '2018-12-03 16:14:16'),
(37, 'UK-BI', 'United Kingdom', 'UK', 'Burundi', 'BI', 1, 'commission', 0, '2018-12-03 16:14:16', '2018-12-03 16:14:16'),
(38, 'UK-KH', 'United Kingdom', 'UK', 'Cambodia', 'KH', 1, 'commission', 0, '2018-12-03 16:14:16', '2018-12-03 16:14:16'),
(39, 'UK-CM', 'United Kingdom', 'UK', 'Cameroon', 'CM', 1, 'commission', 0, '2018-12-03 16:14:16', '2018-12-03 16:14:16'),
(40, 'UK-CA', 'United Kingdom', 'UK', 'Canada', 'CA', 1, 'commission', 0, '2018-12-03 16:14:16', '2018-12-03 16:14:16'),
(41, 'UK-CT', 'United Kingdom', 'UK', 'Canton and Enderbury Islands', 'CT', 1, 'commission', 0, '2018-12-03 16:14:16', '2018-12-03 16:14:16'),
(42, 'UK-CV', 'United Kingdom', 'UK', 'Cape Verde', 'CV', 1, 'commission', 0, '2018-12-03 16:14:16', '2018-12-03 16:14:16'),
(43, 'UK-KY', 'United Kingdom', 'UK', 'Cayman Islands', 'KY', 1, 'commission', 0, '2018-12-03 16:14:16', '2018-12-03 16:14:16'),
(44, 'UK-CF', 'United Kingdom', 'UK', 'Central African Republic', 'CF', 1, 'commission', 0, '2018-12-03 16:14:16', '2018-12-03 16:14:16'),
(45, 'UK-TD', 'United Kingdom', 'UK', 'Chad', 'TD', 1, 'commission', 0, '2018-12-03 16:14:16', '2018-12-03 16:14:16'),
(46, 'UK-CL', 'United Kingdom', 'UK', 'Chile', 'CL', 1, 'commission', 0, '2018-12-03 16:14:16', '2018-12-03 16:14:16'),
(47, 'UK-CN', 'United Kingdom', 'UK', 'China', 'CN', 1, 'commission', 0, '2018-12-03 16:14:16', '2018-12-03 16:14:16'),
(48, 'UK-CX', 'United Kingdom', 'UK', 'Christmas Island', 'CX', 1, 'commission', 0, '2018-12-03 16:14:16', '2018-12-03 16:14:16'),
(49, 'UK-CC', 'United Kingdom', 'UK', 'Cocos [Keeling] Islands', 'CC', 1, 'commission', 0, '2018-12-03 16:14:16', '2018-12-03 16:14:16'),
(50, 'UK-CO', 'United Kingdom', 'UK', 'Colombia', 'CO', 1, 'commission', 0, '2018-12-03 16:14:16', '2018-12-03 16:14:16'),
(51, 'UK-KM', 'United Kingdom', 'UK', 'Comoros', 'KM', 1, 'commission', 0, '2018-12-03 16:14:16', '2018-12-03 16:14:16'),
(52, 'UK-CG', 'United Kingdom', 'UK', 'Congo - Brazzaville', 'CG', 1, 'commission', 0, '2018-12-03 16:14:16', '2018-12-03 16:14:16'),
(53, 'UK-CD', 'United Kingdom', 'UK', 'Congo - Kinshasa', 'CD', 1, 'commission', 0, '2018-12-03 16:14:16', '2018-12-03 16:14:16'),
(54, 'UK-CK', 'United Kingdom', 'UK', 'Cook Islands', 'CK', 1, 'commission', 0, '2018-12-03 16:14:16', '2018-12-03 16:14:16'),
(55, 'UK-CR', 'United Kingdom', 'UK', 'Costa Rica', 'CR', 1, 'commission', 0, '2018-12-03 16:14:16', '2018-12-03 16:14:16'),
(56, 'UK-HR', 'United Kingdom', 'UK', 'Croatia', 'HR', 1, 'commission', 0, '2018-12-03 16:14:16', '2018-12-03 16:14:16'),
(57, 'UK-CU', 'United Kingdom', 'UK', 'Cuba', 'CU', 1, 'commission', 0, '2018-12-03 16:14:16', '2018-12-03 16:14:16'),
(58, 'UK-CY', 'United Kingdom', 'UK', 'Cyprus', 'CY', 1, 'commission', 0, '2018-12-03 16:14:16', '2018-12-03 16:14:16'),
(59, 'UK-CZ', 'United Kingdom', 'UK', 'Czech Republic', 'CZ', 1, 'commission', 0, '2018-12-03 16:14:16', '2018-12-03 16:14:16'),
(60, 'UK-CI', 'United Kingdom', 'UK', 'Côte d’Ivoire', 'CI', 1, 'commission', 0, '2018-12-03 16:14:16', '2018-12-03 16:14:16'),
(61, 'UK-DK', 'United Kingdom', 'UK', 'Denmark', 'DK', 1, 'commission', 0, '2018-12-03 16:14:16', '2018-12-03 16:14:16'),
(62, 'UK-DJ', 'United Kingdom', 'UK', 'Djibouti', 'DJ', 1, 'commission', 0, '2018-12-03 16:14:16', '2018-12-03 16:14:16'),
(63, 'UK-DM', 'United Kingdom', 'UK', 'Dominica', 'DM', 1, 'commission', 0, '2018-12-03 16:14:16', '2018-12-03 16:14:16'),
(64, 'UK-DO', 'United Kingdom', 'UK', 'Dominican Republic', 'DO', 1, 'commission', 0, '2018-12-03 16:14:16', '2018-12-03 16:14:16'),
(65, 'UK-NQ', 'United Kingdom', 'UK', 'Dronning Maud Land', 'NQ', 1, 'commission', 0, '2018-12-03 16:14:16', '2018-12-03 16:14:16'),
(66, 'UK-DD', 'United Kingdom', 'UK', 'East Germany', 'DD', 1, 'commission', 0, '2018-12-03 16:14:16', '2018-12-03 16:14:16'),
(67, 'UK-EC', 'United Kingdom', 'UK', 'Ecuador', 'EC', 1, 'commission', 0, '2018-12-03 16:14:16', '2018-12-03 16:14:16'),
(68, 'UK-EG', 'United Kingdom', 'UK', 'Egypt', 'EG', 1, 'commission', 0, '2018-12-03 16:14:16', '2018-12-03 16:14:16'),
(69, 'UK-SV', 'United Kingdom', 'UK', 'El Salvador', 'SV', 1, 'commission', 0, '2018-12-03 16:14:16', '2018-12-03 16:14:16'),
(70, 'UK-GQ', 'United Kingdom', 'UK', 'Equatorial Guinea', 'GQ', 1, 'commission', 0, '2018-12-03 16:14:16', '2018-12-03 16:14:16'),
(71, 'UK-ER', 'United Kingdom', 'UK', 'Eritrea', 'ER', 1, 'commission', 0, '2018-12-03 16:14:16', '2018-12-03 16:14:16'),
(72, 'UK-EE', 'United Kingdom', 'UK', 'Estonia', 'EE', 1, 'commission', 0, '2018-12-03 16:14:16', '2018-12-03 16:14:16'),
(73, 'UK-ET', 'United Kingdom', 'UK', 'Ethiopia', 'ET', 1, 'commission', 0, '2018-12-03 16:14:16', '2018-12-03 16:14:16'),
(74, 'UK-FK', 'United Kingdom', 'UK', 'Falkland Islands', 'FK', 1, 'commission', 0, '2018-12-03 16:14:16', '2018-12-03 16:14:16'),
(75, 'UK-FO', 'United Kingdom', 'UK', 'Faroe Islands', 'FO', 1, 'commission', 0, '2018-12-03 16:14:16', '2018-12-03 16:14:16'),
(76, 'UK-FJ', 'United Kingdom', 'UK', 'Fiji', 'FJ', 1, 'commission', 0, '2018-12-03 16:14:16', '2018-12-03 16:14:16'),
(77, 'UK-FI', 'United Kingdom', 'UK', 'Finland', 'FI', 1, 'commission', 0, '2018-12-03 16:14:16', '2018-12-03 16:14:16'),
(78, 'UK-FR', 'United Kingdom', 'UK', 'France', 'FR', 1, 'commission', 1, '2018-12-03 16:14:16', '2019-04-09 15:21:59'),
(79, 'UK-GF', 'United Kingdom', 'UK', 'French Guiana', 'GF', 1, 'commission', 0, '2018-12-03 16:14:16', '2018-12-03 16:14:16'),
(80, 'UK-PF', 'United Kingdom', 'UK', 'French Polynesia', 'PF', 1, 'commission', 0, '2018-12-03 16:14:16', '2018-12-03 16:14:16'),
(81, 'UK-TF', 'United Kingdom', 'UK', 'French Southern Territories', 'TF', 1, 'commission', 0, '2018-12-03 16:14:16', '2018-12-03 16:14:16'),
(82, 'UK-FQ', 'United Kingdom', 'UK', 'French Southern and Antarctic Territories', 'FQ', 1, 'commission', 0, '2018-12-03 16:14:16', '2018-12-03 16:14:16'),
(83, 'UK-GA', 'United Kingdom', 'UK', 'Gabon', 'GA', 1, 'commission', 0, '2018-12-03 16:14:16', '2018-12-03 16:14:16'),
(84, 'UK-GM', 'United Kingdom', 'UK', 'Gambia', 'GM', 1, 'commission', 0, '2018-12-03 16:14:16', '2018-12-03 16:14:16'),
(85, 'UK-GE', 'United Kingdom', 'UK', 'Georgia', 'GE', 1, 'commission', 0, '2018-12-03 16:14:16', '2018-12-03 16:14:16'),
(86, 'UK-DE', 'United Kingdom', 'UK', 'Germany', 'DE', 1, 'commission', 0, '2018-12-03 16:14:16', '2018-12-03 16:14:16'),
(87, 'UK-GH', 'United Kingdom', 'UK', 'Ghana', 'GH', 1, 'commission', 1, '2018-12-03 16:14:16', '2019-04-09 15:21:33'),
(88, 'UK-GI', 'United Kingdom', 'UK', 'Gibraltar', 'GI', 1, 'commission', 0, '2018-12-03 16:14:16', '2018-12-03 16:14:16'),
(89, 'UK-GR', 'United Kingdom', 'UK', 'Greece', 'GR', 1, 'commission', 0, '2018-12-03 16:14:16', '2018-12-03 16:14:16'),
(90, 'UK-GL', 'United Kingdom', 'UK', 'Greenland', 'GL', 1, 'commission', 0, '2018-12-03 16:14:16', '2018-12-03 16:14:16'),
(91, 'UK-GD', 'United Kingdom', 'UK', 'Grenada', 'GD', 1, 'commission', 0, '2018-12-03 16:14:16', '2018-12-03 16:14:16'),
(92, 'UK-GP', 'United Kingdom', 'UK', 'Guadeloupe', 'GP', 1, 'commission', 0, '2018-12-03 16:14:16', '2018-12-03 16:14:16'),
(93, 'UK-GU', 'United Kingdom', 'UK', 'Guam', 'GU', 1, 'commission', 0, '2018-12-03 16:14:16', '2018-12-03 16:14:16'),
(94, 'UK-GT', 'United Kingdom', 'UK', 'Guatemala', 'GT', 1, 'commission', 0, '2018-12-03 16:14:16', '2018-12-03 16:14:16'),
(95, 'UK-GG', 'United Kingdom', 'UK', 'Guernsey', 'GG', 1, 'commission', 0, '2018-12-03 16:14:16', '2018-12-03 16:14:16'),
(96, 'UK-GN', 'United Kingdom', 'UK', 'Guinea', 'GN', 1, 'commission', 0, '2018-12-03 16:14:16', '2018-12-03 16:14:16'),
(97, 'UK-GW', 'United Kingdom', 'UK', 'Guinea-Bissau', 'GW', 1, 'commission', 0, '2018-12-03 16:14:16', '2018-12-03 16:14:16'),
(98, 'UK-GY', 'United Kingdom', 'UK', 'Guyana', 'GY', 1, 'commission', 0, '2018-12-03 16:14:16', '2018-12-03 16:14:16'),
(99, 'UK-HT', 'United Kingdom', 'UK', 'Haiti', 'HT', 1, 'commission', 0, '2018-12-03 16:14:16', '2018-12-03 16:14:16'),
(100, 'UK-HM', 'United Kingdom', 'UK', 'Heard Island and McDonald Islands', 'HM', 1, 'commission', 0, '2018-12-03 16:14:16', '2018-12-03 16:14:16'),
(101, 'UK-HN', 'United Kingdom', 'UK', 'Honduras', 'HN', 1, 'commission', 0, '2018-12-03 16:14:16', '2018-12-03 16:14:16'),
(102, 'UK-HK', 'United Kingdom', 'UK', 'Hong Kong SAR China', 'HK', 1, 'commission', 0, '2018-12-03 16:14:16', '2018-12-03 16:14:16'),
(103, 'UK-HU', 'United Kingdom', 'UK', 'Hungary', 'HU', 1, 'commission', 0, '2018-12-03 16:14:16', '2018-12-03 16:14:16'),
(104, 'UK-IS', 'United Kingdom', 'UK', 'Iceland', 'IS', 1, 'commission', 0, '2018-12-03 16:14:16', '2018-12-03 16:14:16'),
(105, 'UK-IN', 'United Kingdom', 'UK', 'India', 'IN', 1, 'commission', 0, '2018-12-03 16:14:16', '2018-12-03 16:14:16'),
(106, 'UK-ID', 'United Kingdom', 'UK', 'Indonesia', 'ID', 1, 'commission', 0, '2018-12-03 16:14:16', '2018-12-03 16:14:16'),
(107, 'UK-IR', 'United Kingdom', 'UK', 'Iran', 'IR', 1, 'commission', 0, '2018-12-03 16:14:16', '2018-12-03 16:14:16'),
(108, 'UK-IQ', 'United Kingdom', 'UK', 'Iraq', 'IQ', 1, 'commission', 0, '2018-12-03 16:14:16', '2018-12-03 16:14:16'),
(109, 'UK-IE', 'United Kingdom', 'UK', 'Ireland', 'IE', 1, 'commission', 0, '2018-12-03 16:14:16', '2018-12-03 16:14:16'),
(110, 'UK-IM', 'United Kingdom', 'UK', 'Isle of Man', 'IM', 1, 'commission', 0, '2018-12-03 16:14:16', '2018-12-03 16:14:16'),
(111, 'UK-IL', 'United Kingdom', 'UK', 'Israel', 'IL', 1, 'commission', 0, '2018-12-03 16:14:16', '2018-12-03 16:14:16'),
(112, 'UK-IT', 'United Kingdom', 'UK', 'Italy', 'IT', 1, 'commission', 1, '2018-12-03 16:14:16', '2019-04-09 15:22:43'),
(113, 'UK-JM', 'United Kingdom', 'UK', 'Jamaica', 'JM', 1, 'commission', 0, '2018-12-03 16:14:16', '2018-12-03 16:14:16'),
(114, 'UK-JP', 'United Kingdom', 'UK', 'Japan', 'JP', 1, 'commission', 0, '2018-12-03 16:14:16', '2018-12-03 16:14:16'),
(115, 'UK-JE', 'United Kingdom', 'UK', 'Jersey', 'JE', 1, 'commission', 0, '2018-12-03 16:14:16', '2018-12-03 16:14:16'),
(116, 'UK-JT', 'United Kingdom', 'UK', 'Johnston Island', 'JT', 1, 'commission', 0, '2018-12-03 16:14:16', '2018-12-03 16:14:16'),
(117, 'UK-JO', 'United Kingdom', 'UK', 'Jordan', 'JO', 1, 'commission', 0, '2018-12-03 16:14:16', '2018-12-03 16:14:16'),
(118, 'UK-KZ', 'United Kingdom', 'UK', 'Kazakhstan', 'KZ', 1, 'commission', 0, '2018-12-03 16:14:16', '2018-12-03 16:14:16'),
(119, 'UK-KE', 'United Kingdom', 'UK', 'Kenya', 'KE', 1, 'commission', 0, '2018-12-03 16:14:16', '2018-12-03 16:14:16'),
(120, 'UK-KI', 'United Kingdom', 'UK', 'Kiribati', 'KI', 1, 'commission', 0, '2018-12-03 16:14:16', '2018-12-03 16:14:16'),
(121, 'UK-KW', 'United Kingdom', 'UK', 'Kuwait', 'KW', 1, 'commission', 0, '2018-12-03 16:14:16', '2018-12-03 16:14:16'),
(122, 'UK-KG', 'United Kingdom', 'UK', 'Kyrgyzstan', 'KG', 1, 'commission', 0, '2018-12-03 16:14:16', '2018-12-03 16:14:16'),
(123, 'UK-LA', 'United Kingdom', 'UK', 'Laos', 'LA', 1, 'commission', 0, '2018-12-03 16:14:16', '2018-12-03 16:14:16'),
(124, 'UK-LV', 'United Kingdom', 'UK', 'Latvia', 'LV', 1, 'commission', 0, '2018-12-03 16:14:16', '2018-12-03 16:14:16'),
(125, 'UK-LB', 'United Kingdom', 'UK', 'Lebanon', 'LB', 1, 'commission', 0, '2018-12-03 16:14:16', '2018-12-03 16:14:16'),
(126, 'UK-LS', 'United Kingdom', 'UK', 'Lesotho', 'LS', 1, 'commission', 0, '2018-12-03 16:14:16', '2018-12-03 16:14:16'),
(127, 'UK-LR', 'United Kingdom', 'UK', 'Liberia', 'LR', 1, 'commission', 0, '2018-12-03 16:14:16', '2018-12-03 16:14:16'),
(128, 'UK-LY', 'United Kingdom', 'UK', 'Libya', 'LY', 1, 'commission', 0, '2018-12-03 16:14:16', '2018-12-03 16:14:16'),
(129, 'UK-LI', 'United Kingdom', 'UK', 'Liechtenstein', 'LI', 1, 'commission', 0, '2018-12-03 16:14:16', '2018-12-03 16:14:16'),
(130, 'UK-LT', 'United Kingdom', 'UK', 'Lithuania', 'LT', 1, 'commission', 0, '2018-12-03 16:14:16', '2018-12-03 16:14:16'),
(131, 'UK-LU', 'United Kingdom', 'UK', 'Luxembourg', 'LU', 1, 'commission', 0, '2018-12-03 16:14:16', '2018-12-03 16:14:16'),
(132, 'UK-MO', 'United Kingdom', 'UK', 'Macau SAR China', 'MO', 1, 'commission', 0, '2018-12-03 16:14:16', '2018-12-03 16:14:16'),
(133, 'UK-MK', 'United Kingdom', 'UK', 'Macedonia', 'MK', 1, 'commission', 0, '2018-12-03 16:14:16', '2018-12-03 16:14:16'),
(134, 'UK-MG', 'United Kingdom', 'UK', 'Madagascar', 'MG', 1, 'commission', 0, '2018-12-03 16:14:16', '2018-12-03 16:14:16'),
(135, 'UK-MW', 'United Kingdom', 'UK', 'Malawi', 'MW', 1, 'commission', 0, '2018-12-03 16:14:16', '2018-12-03 16:14:16'),
(136, 'UK-MY', 'United Kingdom', 'UK', 'Malaysia', 'MY', 1, 'commission', 0, '2018-12-03 16:14:16', '2018-12-03 16:14:16'),
(137, 'UK-MV', 'United Kingdom', 'UK', 'Maldives', 'MV', 1, 'commission', 0, '2018-12-03 16:14:16', '2018-12-03 16:14:16'),
(138, 'UK-ML', 'United Kingdom', 'UK', 'Mali', 'ML', 1, 'commission', 0, '2018-12-03 16:14:16', '2018-12-03 16:14:16'),
(139, 'UK-MT', 'United Kingdom', 'UK', 'Malta', 'MT', 1, 'commission', 0, '2018-12-03 16:14:16', '2018-12-03 16:14:16'),
(140, 'UK-MH', 'United Kingdom', 'UK', 'Marshall Islands', 'MH', 1, 'commission', 0, '2018-12-03 16:14:16', '2018-12-03 16:14:16'),
(141, 'UK-MQ', 'United Kingdom', 'UK', 'Martinique', 'MQ', 1, 'commission', 0, '2018-12-03 16:14:16', '2018-12-03 16:14:16'),
(142, 'UK-MR', 'United Kingdom', 'UK', 'Mauritania', 'MR', 1, 'commission', 0, '2018-12-03 16:14:16', '2018-12-03 16:14:16'),
(143, 'UK-MU', 'United Kingdom', 'UK', 'Mauritius', 'MU', 1, 'commission', 0, '2018-12-03 16:14:16', '2018-12-03 16:14:16'),
(144, 'UK-YT', 'United Kingdom', 'UK', 'Mayotte', 'YT', 1, 'commission', 0, '2018-12-03 16:14:16', '2018-12-03 16:14:16'),
(145, 'UK-FX', 'United Kingdom', 'UK', 'Metropolitan France', 'FX', 1, 'commission', 0, '2018-12-03 16:14:16', '2018-12-03 16:14:16'),
(146, 'UK-MX', 'United Kingdom', 'UK', 'Mexico', 'MX', 1, 'commission', 0, '2018-12-03 16:14:16', '2018-12-03 16:14:16'),
(147, 'UK-FM', 'United Kingdom', 'UK', 'Micronesia', 'FM', 1, 'commission', 0, '2018-12-03 16:14:16', '2018-12-03 16:14:16'),
(148, 'UK-MI', 'United Kingdom', 'UK', 'Midway Islands', 'MI', 1, 'commission', 0, '2018-12-03 16:14:16', '2018-12-03 16:14:16'),
(149, 'UK-MD', 'United Kingdom', 'UK', 'Moldova', 'MD', 1, 'commission', 0, '2018-12-03 16:14:16', '2018-12-03 16:14:16'),
(150, 'UK-MC', 'United Kingdom', 'UK', 'Monaco', 'MC', 1, 'commission', 0, '2018-12-03 16:14:16', '2018-12-03 16:14:16'),
(151, 'UK-MN', 'United Kingdom', 'UK', 'Mongolia', 'MN', 1, 'commission', 0, '2018-12-03 16:14:16', '2018-12-03 16:14:16'),
(152, 'UK-ME', 'United Kingdom', 'UK', 'Montenegro', 'ME', 1, 'commission', 0, '2018-12-03 16:14:16', '2018-12-03 16:14:16'),
(153, 'UK-MS', 'United Kingdom', 'UK', 'Montserrat', 'MS', 1, 'commission', 0, '2018-12-03 16:14:16', '2018-12-03 16:14:16'),
(154, 'UK-MA', 'United Kingdom', 'UK', 'Morocco', 'MA', 1, 'commission', 0, '2018-12-03 16:14:16', '2018-12-03 16:14:16'),
(155, 'UK-MZ', 'United Kingdom', 'UK', 'Mozambique', 'MZ', 1, 'commission', 0, '2018-12-03 16:14:16', '2018-12-03 16:14:16'),
(156, 'UK-MM', 'United Kingdom', 'UK', 'Myanmar [Burma]', 'MM', 1, 'commission', 0, '2018-12-03 16:14:16', '2018-12-03 16:14:16'),
(157, 'UK-NA', 'United Kingdom', 'UK', 'Namibia', 'NA', 1, 'commission', 0, '2018-12-03 16:14:16', '2018-12-03 16:14:16'),
(158, 'UK-NR', 'United Kingdom', 'UK', 'Nauru', 'NR', 1, 'commission', 0, '2018-12-03 16:14:16', '2018-12-03 16:14:16'),
(159, 'UK-NP', 'United Kingdom', 'UK', 'Nepal', 'NP', 1, 'commission', 0, '2018-12-03 16:14:16', '2018-12-03 16:14:16'),
(160, 'UK-NL', 'United Kingdom', 'UK', 'Netherlands', 'NL', 1, 'commission', 0, '2018-12-03 16:14:16', '2018-12-03 16:14:16'),
(161, 'UK-AN', 'United Kingdom', 'UK', 'Netherlands Antilles', 'AN', 1, 'commission', 0, '2018-12-03 16:14:16', '2018-12-03 16:14:16'),
(162, 'UK-NT', 'United Kingdom', 'UK', 'Neutral Zone', 'NT', 1, 'commission', 0, '2018-12-03 16:14:16', '2018-12-03 16:14:16'),
(163, 'UK-NC', 'United Kingdom', 'UK', 'New Caledonia', 'NC', 1, 'commission', 0, '2018-12-03 16:14:16', '2018-12-03 16:14:16'),
(164, 'UK-NZ', 'United Kingdom', 'UK', 'New Zealand', 'NZ', 1, 'commission', 0, '2018-12-03 16:14:16', '2018-12-03 16:14:16'),
(165, 'UK-NI', 'United Kingdom', 'UK', 'Nicaragua', 'NI', 1, 'commission', 0, '2018-12-03 16:14:16', '2018-12-03 16:14:16'),
(166, 'UK-NE', 'United Kingdom', 'UK', 'Niger', 'NE', 1, 'commission', 0, '2018-12-03 16:14:16', '2018-12-03 16:14:16'),
(168, 'UK-NU', 'United Kingdom', 'UK', 'Niue', 'NU', 1, 'commission', 0, '2018-12-03 16:14:16', '2018-12-03 16:14:16'),
(169, 'UK-NF', 'United Kingdom', 'UK', 'Norfolk Island', 'NF', 1, 'commission', 0, '2018-12-03 16:14:16', '2018-12-03 16:14:16'),
(170, 'UK-KP', 'United Kingdom', 'UK', 'North Korea', 'KP', 1, 'commission', 0, '2018-12-03 16:14:16', '2018-12-03 16:14:16'),
(171, 'UK-VD', 'United Kingdom', 'UK', 'North Vietnam', 'VD', 1, 'commission', 0, '2018-12-03 16:14:16', '2018-12-03 16:14:16'),
(172, 'UK-MP', 'United Kingdom', 'UK', 'Northern Mariana Islands', 'MP', 1, 'commission', 0, '2018-12-03 16:14:16', '2018-12-03 16:14:16'),
(173, 'UK-NO', 'United Kingdom', 'UK', 'Norway', 'NO', 1, 'commission', 0, '2018-12-03 16:14:16', '2018-12-03 16:14:16'),
(174, 'UK-OM', 'United Kingdom', 'UK', 'Oman', 'OM', 1, 'commission', 0, '2018-12-03 16:14:16', '2018-12-03 16:14:16'),
(175, 'UK-PC', 'United Kingdom', 'UK', 'Pacific Islands Trust Territory', 'PC', 1, 'commission', 0, '2018-12-03 16:14:16', '2018-12-03 16:14:16'),
(176, 'UK-PK', 'United Kingdom', 'UK', 'Pakistan', 'PK', 1, 'commission', 0, '2018-12-03 16:14:16', '2018-12-03 16:14:16'),
(177, 'UK-PW', 'United Kingdom', 'UK', 'Palau', 'PW', 1, 'commission', 0, '2018-12-03 16:14:16', '2018-12-03 16:14:16'),
(178, 'UK-PS', 'United Kingdom', 'UK', 'Palestinian Territories', 'PS', 1, 'commission', 0, '2018-12-03 16:14:16', '2018-12-03 16:14:16'),
(179, 'UK-PA', 'United Kingdom', 'UK', 'Panama', 'PA', 1, 'commission', 0, '2018-12-03 16:14:16', '2018-12-03 16:14:16'),
(180, 'UK-PZ', 'United Kingdom', 'UK', 'Panama Canal Zone', 'PZ', 1, 'commission', 0, '2018-12-03 16:14:16', '2018-12-03 16:14:16'),
(181, 'UK-PG', 'United Kingdom', 'UK', 'Papua New Guinea', 'PG', 1, 'commission', 0, '2018-12-03 16:14:16', '2018-12-03 16:14:16'),
(182, 'UK-PY', 'United Kingdom', 'UK', 'Paraguay', 'PY', 1, 'commission', 0, '2018-12-03 16:14:16', '2018-12-03 16:14:16'),
(183, 'UK-YD', 'United Kingdom', 'UK', 'People\'s Democratic Republic of Yemen', 'YD', 1, 'commission', 0, '2018-12-03 16:14:16', '2018-12-03 16:14:16'),
(184, 'UK-PE', 'United Kingdom', 'UK', 'Peru', 'PE', 1, 'commission', 0, '2018-12-03 16:14:16', '2018-12-03 16:14:16'),
(185, 'UK-PH', 'United Kingdom', 'UK', 'Philippines', 'PH', 1, 'commission', 0, '2018-12-03 16:14:16', '2018-12-03 16:14:16'),
(186, 'UK-PN', 'United Kingdom', 'UK', 'Pitcairn Islands', 'PN', 1, 'commission', 0, '2018-12-03 16:14:16', '2018-12-03 16:14:16'),
(187, 'UK-PL', 'United Kingdom', 'UK', 'Poland', 'PL', 1, 'commission', 0, '2018-12-03 16:14:16', '2018-12-03 16:14:16'),
(188, 'UK-PT', 'United Kingdom', 'UK', 'Portugal', 'PT', 1, 'commission', 0, '2018-12-03 16:14:16', '2018-12-03 16:14:16'),
(189, 'UK-PR', 'United Kingdom', 'UK', 'Puerto Rico', 'PR', 1, 'commission', 0, '2018-12-03 16:14:16', '2018-12-03 16:14:16'),
(190, 'UK-QA', 'United Kingdom', 'UK', 'Qatar', 'QA', 1, 'commission', 0, '2018-12-03 16:14:16', '2018-12-03 16:14:16'),
(191, 'UK-RO', 'United Kingdom', 'UK', 'Romania', 'RO', 1, 'commission', 0, '2018-12-03 16:14:16', '2018-12-03 16:14:16'),
(192, 'UK-RU', 'United Kingdom', 'UK', 'Russia', 'RU', 1, 'commission', 0, '2018-12-03 16:14:16', '2018-12-03 16:14:16'),
(193, 'UK-RW', 'United Kingdom', 'UK', 'Rwanda', 'RW', 1, 'commission', 0, '2018-12-03 16:14:16', '2018-12-03 16:14:16'),
(194, 'UK-RE', 'United Kingdom', 'UK', 'Réunion', 'RE', 1, 'commission', 0, '2018-12-03 16:14:16', '2018-12-03 16:14:16'),
(195, 'UK-BL', 'United Kingdom', 'UK', 'Saint Barthélemy', 'BL', 1, 'commission', 0, '2018-12-03 16:14:16', '2018-12-03 16:14:16'),
(196, 'UK-SH', 'United Kingdom', 'UK', 'Saint Helena', 'SH', 1, 'commission', 0, '2018-12-03 16:14:16', '2018-12-03 16:14:16'),
(197, 'UK-KN', 'United Kingdom', 'UK', 'Saint Kitts and Nevis', 'KN', 1, 'commission', 0, '2018-12-03 16:14:16', '2018-12-03 16:14:16'),
(198, 'UK-LC', 'United Kingdom', 'UK', 'Saint Lucia', 'LC', 1, 'commission', 0, '2018-12-03 16:14:16', '2018-12-03 16:14:16'),
(199, 'UK-MF', 'United Kingdom', 'UK', 'Saint Martin', 'MF', 1, 'commission', 0, '2018-12-03 16:14:16', '2018-12-03 16:14:16'),
(200, 'UK-PM', 'United Kingdom', 'UK', 'Saint Pierre and Miquelon', 'PM', 1, 'commission', 0, '2018-12-03 16:14:16', '2018-12-03 16:14:16'),
(201, 'UK-VC', 'United Kingdom', 'UK', 'Saint Vincent and the Grenadines', 'VC', 1, 'commission', 0, '2018-12-03 16:14:16', '2018-12-03 16:14:16'),
(202, 'UK-WS', 'United Kingdom', 'UK', 'Samoa', 'WS', 1, 'commission', 0, '2018-12-03 16:14:16', '2018-12-03 16:14:16'),
(203, 'UK-SM', 'United Kingdom', 'UK', 'San Marino', 'SM', 1, 'commission', 0, '2018-12-03 16:14:16', '2018-12-03 16:14:16'),
(204, 'UK-SA', 'United Kingdom', 'UK', 'Saudi Arabia', 'SA', 1, 'commission', 0, '2018-12-03 16:14:16', '2018-12-03 16:14:16'),
(205, 'UK-SN', 'United Kingdom', 'UK', 'Senegal', 'SN', 1, 'commission', 0, '2018-12-03 16:14:16', '2018-12-03 16:14:16'),
(206, 'UK-RS', 'United Kingdom', 'UK', 'Serbia', 'RS', 1, 'commission', 0, '2018-12-03 16:14:16', '2018-12-03 16:14:16'),
(207, 'UK-CS', 'United Kingdom', 'UK', 'Serbia and Montenegro', 'CS', 1, 'commission', 0, '2018-12-03 16:14:16', '2018-12-03 16:14:16'),
(208, 'UK-SC', 'United Kingdom', 'UK', 'Seychelles', 'SC', 1, 'commission', 0, '2018-12-03 16:14:16', '2018-12-03 16:14:16'),
(209, 'UK-SL', 'United Kingdom', 'UK', 'Sierra Leone', 'SL', 1, 'commission', 0, '2018-12-03 16:14:16', '2018-12-03 16:14:16'),
(210, 'UK-SG', 'United Kingdom', 'UK', 'Singapore', 'SG', 1, 'commission', 0, '2018-12-03 16:14:16', '2018-12-03 16:14:16'),
(211, 'UK-SK', 'United Kingdom', 'UK', 'Slovakia', 'SK', 1, 'commission', 0, '2018-12-03 16:14:16', '2018-12-03 16:14:16'),
(212, 'UK-SI', 'United Kingdom', 'UK', 'Slovenia', 'SI', 1, 'commission', 0, '2018-12-03 16:14:16', '2018-12-03 16:14:16'),
(213, 'UK-SB', 'United Kingdom', 'UK', 'Solomon Islands', 'SB', 1, 'commission', 0, '2018-12-03 16:14:16', '2018-12-03 16:14:16'),
(214, 'UK-SO', 'United Kingdom', 'UK', 'Somalia', 'SO', 1, 'commission', 0, '2018-12-03 16:14:16', '2018-12-03 16:14:16'),
(215, 'UK-ZA', 'United Kingdom', 'UK', 'South Africa', 'ZA', 1, 'commission', 0, '2018-12-03 16:14:16', '2018-12-03 16:14:16'),
(216, 'UK-GS', 'United Kingdom', 'UK', 'South Georgia and the South Sandwich Islands', 'GS', 1, 'commission', 0, '2018-12-03 16:14:16', '2018-12-03 16:14:16'),
(217, 'UK-KR', 'United Kingdom', 'UK', 'South Korea', 'KR', 1, 'commission', 0, '2018-12-03 16:14:16', '2018-12-03 16:14:16'),
(218, 'UK-ES', 'United Kingdom', 'UK', 'Spain', 'ES', 1, 'commission', 0, '2018-12-03 16:14:16', '2018-12-03 16:14:16'),
(219, 'UK-LK', 'United Kingdom', 'UK', 'Sri Lanka', 'LK', 1, 'commission', 0, '2018-12-03 16:14:16', '2018-12-03 16:14:16'),
(220, 'UK-SD', 'United Kingdom', 'UK', 'Sudan', 'SD', 1, 'commission', 0, '2018-12-03 16:14:16', '2018-12-03 16:14:16'),
(221, 'UK-SR', 'United Kingdom', 'UK', 'Suriname', 'SR', 1, 'commission', 0, '2018-12-03 16:14:16', '2018-12-03 16:14:16'),
(222, 'UK-SJ', 'United Kingdom', 'UK', 'Svalbard and Jan Mayen', 'SJ', 1, 'commission', 0, '2018-12-03 16:14:16', '2018-12-03 16:14:16'),
(223, 'UK-SZ', 'United Kingdom', 'UK', 'Swaziland', 'SZ', 1, 'commission', 0, '2018-12-03 16:14:16', '2018-12-03 16:14:16'),
(224, 'UK-SE', 'United Kingdom', 'UK', 'Sweden', 'SE', 1, 'commission', 0, '2018-12-03 16:14:16', '2018-12-03 16:14:16'),
(225, 'UK-CH', 'United Kingdom', 'UK', 'Switzerland', 'CH', 1, 'commission', 0, '2018-12-03 16:14:16', '2018-12-03 16:14:16'),
(226, 'UK-SY', 'United Kingdom', 'UK', 'Syria', 'SY', 1, 'commission', 0, '2018-12-03 16:14:16', '2018-12-03 16:14:16'),
(227, 'UK-ST', 'United Kingdom', 'UK', 'São Tomé and Príncipe', 'ST', 1, 'commission', 0, '2018-12-03 16:14:16', '2018-12-03 16:14:16'),
(228, 'UK-TW', 'United Kingdom', 'UK', 'Taiwan', 'TW', 1, 'commission', 0, '2018-12-03 16:14:16', '2018-12-03 16:14:16'),
(229, 'UK-TJ', 'United Kingdom', 'UK', 'Tajikistan', 'TJ', 1, 'commission', 0, '2018-12-03 16:14:16', '2018-12-03 16:14:16'),
(230, 'UK-TZ', 'United Kingdom', 'UK', 'Tanzania', 'TZ', 1, 'commission', 0, '2018-12-03 16:14:16', '2018-12-03 16:14:16'),
(231, 'UK-TH', 'United Kingdom', 'UK', 'Thailand', 'TH', 1, 'commission', 0, '2018-12-03 16:14:16', '2018-12-03 16:14:16'),
(232, 'UK-TL', 'United Kingdom', 'UK', 'Timor-Leste', 'TL', 1, 'commission', 0, '2018-12-03 16:14:16', '2018-12-03 16:14:16'),
(233, 'UK-TG', 'United Kingdom', 'UK', 'Togo', 'TG', 1, 'commission', 0, '2018-12-03 16:14:16', '2018-12-03 16:14:16'),
(234, 'UK-TK', 'United Kingdom', 'UK', 'Tokelau', 'TK', 1, 'commission', 0, '2018-12-03 16:14:16', '2018-12-03 16:14:16'),
(235, 'UK-TO', 'United Kingdom', 'UK', 'Tonga', 'TO', 1, 'commission', 0, '2018-12-03 16:14:16', '2018-12-03 16:14:16'),
(236, 'UK-TT', 'United Kingdom', 'UK', 'Trinidad and Tobago', 'TT', 1, 'commission', 0, '2018-12-03 16:14:16', '2018-12-03 16:14:16'),
(237, 'UK-TN', 'United Kingdom', 'UK', 'Tunisia', 'TN', 1, 'commission', 0, '2018-12-03 16:14:16', '2018-12-03 16:14:16'),
(238, 'UK-TR', 'United Kingdom', 'UK', 'Turkey', 'TR', 1, 'commission', 0, '2018-12-03 16:14:16', '2018-12-03 16:14:16'),
(239, 'UK-TM', 'United Kingdom', 'UK', 'Turkmenistan', 'TM', 1, 'commission', 0, '2018-12-03 16:14:16', '2018-12-03 16:14:16'),
(240, 'UK-TC', 'United Kingdom', 'UK', 'Turks and Caicos Islands', 'TC', 1, 'commission', 0, '2018-12-03 16:14:16', '2018-12-03 16:14:16'),
(241, 'UK-TV', 'United Kingdom', 'UK', 'Tuvalu', 'TV', 1, 'commission', 0, '2018-12-03 16:14:16', '2018-12-03 16:14:16'),
(242, 'UK-UM', 'United Kingdom', 'UK', 'U.S. Minor Outlying Islands', 'UM', 1, 'commission', 0, '2018-12-03 16:14:16', '2018-12-03 16:14:16'),
(243, 'UK-PU', 'United Kingdom', 'UK', 'U.S. Miscellaneous Pacific Islands', 'PU', 1, 'commission', 0, '2018-12-03 16:14:16', '2018-12-03 16:14:16'),
(244, 'UK-VI', 'United Kingdom', 'UK', 'U.S. Virgin Islands', 'VI', 1, 'commission', 0, '2018-12-03 16:14:16', '2018-12-03 16:14:16'),
(245, 'UK-UG', 'United Kingdom', 'UK', 'Uganda', 'UG', 1, 'commission', 0, '2018-12-03 16:14:16', '2018-12-03 16:14:16'),
(246, 'UK-UA', 'United Kingdom', 'UK', 'Ukraine', 'UA', 1, 'commission', 0, '2018-12-03 16:14:16', '2018-12-03 16:14:16'),
(247, 'UK-SU', 'United Kingdom', 'UK', 'Union of Soviet Socialist Republics', 'SU', 1, 'commission', 0, '2018-12-03 16:14:16', '2018-12-03 16:14:16'),
(248, 'UK-AE', 'United Kingdom', 'UK', 'United Arab Emirates', 'AE', 1, 'commission', 0, '2018-12-03 16:14:16', '2018-12-03 16:14:16'),
(249, 'UK-GB', 'United Kingdom', 'UK', 'United Kingdom', 'GB', 1, 'commission', 0, '2018-12-03 16:14:16', '2018-12-03 16:14:16'),
(250, 'UK-US', 'United Kingdom', 'UK', 'United States', 'US', 1, 'commission', 0, '2018-12-03 16:14:16', '2018-12-03 16:14:16'),
(251, 'UK-ZZ', 'United Kingdom', 'UK', 'Unknown or Invalid Region', 'ZZ', 1, 'commission', 0, '2018-12-03 16:14:16', '2018-12-03 16:14:16'),
(252, 'UK-UY', 'United Kingdom', 'UK', 'Uruguay', 'UY', 1, 'commission', 0, '2018-12-03 16:14:16', '2018-12-03 16:14:16'),
(253, 'UK-UZ', 'United Kingdom', 'UK', 'Uzbekistan', 'UZ', 1, 'commission', 0, '2018-12-03 16:14:16', '2018-12-03 16:14:16'),
(254, 'UK-VU', 'United Kingdom', 'UK', 'Vanuatu', 'VU', 1, 'commission', 0, '2018-12-03 16:14:16', '2018-12-03 16:14:16'),
(255, 'UK-VA', 'United Kingdom', 'UK', 'Vatican City', 'VA', 1, 'commission', 0, '2018-12-03 16:14:16', '2018-12-03 16:14:16'),
(256, 'UK-VE', 'United Kingdom', 'UK', 'Venezuela', 'VE', 1, 'commission', 0, '2018-12-03 16:14:16', '2018-12-03 16:14:16'),
(257, 'UK-VN', 'United Kingdom', 'UK', 'Vietnam', 'VN', 1, 'commission', 0, '2018-12-03 16:14:16', '2018-12-03 16:14:16'),
(258, 'UK-WK', 'United Kingdom', 'UK', 'Wake Island', 'WK', 1, 'commission', 0, '2018-12-03 16:14:16', '2018-12-03 16:14:16'),
(259, 'UK-WF', 'United Kingdom', 'UK', 'Wallis and Futuna', 'WF', 1, 'commission', 0, '2018-12-03 16:14:16', '2018-12-03 16:14:16'),
(260, 'UK-EH', 'United Kingdom', 'UK', 'Western Sahara', 'EH', 1, 'commission', 0, '2018-12-03 16:14:16', '2018-12-03 16:14:16'),
(261, 'UK-YE', 'United Kingdom', 'UK', 'Yemen', 'YE', 1, 'commission', 0, '2018-12-03 16:14:16', '2018-12-03 16:14:16'),
(262, 'UK-ZM', 'United Kingdom', 'UK', 'Zambia', 'ZM', 1, 'commission', 0, '2018-12-03 16:14:16', '2018-12-03 16:14:16'),
(263, 'UK-ZW', 'United Kingdom', 'UK', 'Zimbabwe', 'ZW', 1, 'commission', 0, '2018-12-03 16:14:16', '2018-12-03 16:14:16'),
(264, 'UK-AX', 'United Kingdom', 'UK', 'Åland Islands', 'AX', 1, 'commission', 0, '2018-12-03 16:14:16', '2018-12-03 16:14:16'),
(265, 'UK-AF', 'United Kingdom', 'UK', 'Afghanistan', 'AF', 1, 'commission', 0, '2018-12-03 16:14:16', '2018-12-03 16:14:16');

--
-- Indexes for dumped tables
--

--
-- Indexes for table `laravel_currency`
--
ALTER TABLE `laravel_currency`
  ADD PRIMARY KEY (`id`);

--
-- AUTO_INCREMENT for dumped tables
--

--
-- AUTO_INCREMENT for table `laravel_currency`
--
ALTER TABLE `laravel_currency`
  MODIFY `id` int(10) UNSIGNED NOT NULL AUTO_INCREMENT, AUTO_INCREMENT=266;
COMMIT;
